{
    "antifeatures": {
        "Ads": "Aplikazio honek iragarkiak ditu",
        "DisabledAlgorithm": "Aplikazio honek segurtasun sinadura ahula du",
        "KnownVuln": "Aplikazio honek segurtasun arazo ezagun bat du",
        "NSFW": "Aplikazio honek edonon ikusgarri edo argitaratua egon ezin duen edukia du",
        "NoSourceSince": "Iturburu kodea ez dago jada eskuragarri, ezin izango dira eguneraketak egin",
        "NonFreeAdd": "Aplikazio honen libreak ez diren gehigarriak bultzatzen ditu",
        "NonFreeAssets": "Aplikazio honek libreak ez diren atalak ditu",
        "NonFreeDep": "Aplikazio honek libreak ez diren beste aplikazio batzuk behar ditu",
        "NonFreeNet": "Aplikazio honek libreak ez diren sare zerbitzuak bultzatzen ditu edo hauen mendekoa da",
        "Tracking": "Aplikazio honek zure eginkizunen jarraipena egiten du eta berri ematen du",
        "UpstreamNonFree": "Jatorrizko iturburu kodea ez da guztiz librea"
    },
    "app_categories": {
        "Connectivity": "Konektibitatea",
        "Development": "Garapena",
        "Games": "Jolasak",
        "Graphics": "Grafikoak",
        "Internet": "Internet",
        "Money": "Dirua",
        "Multimedia": "Multimedia",
        "Navigation": "Orientazioa",
        "Phone & SMS": "Telefonoa eta SMS",
        "Reading": "Irakurketa",
        "Science & Education": "Zientzia eta hezkuntza",
        "Security": "Segurtasuna",
        "Sports & Health": "Kirola eta osasuna",
        "System": "Sistema",
        "Theming": "Itxura",
        "Time": "Denbora",
        "Writing": "Idazketa",
        "show_all_packages": "Erakutsi %d pakete guztiak"
    },
    "index": {
        "download_fdroid": "Deskargatu F-Droid",
        "gpg_signature": "PGP sinadura",
        "introduction": "F-Droid instalatu daitekeen Android plataformarako aplikazio libreen edo FOSS (Free and Open Source Software) katalogo bat da. Bezero honek zure gailuan aplikazio hauek erraz bilatu, instalatu eta eguneratzea ahalbidetzen dizu.",
        "screenshot": "Android-erako F-Droid-en pantaila-argazkiak",
        "title": "Zer da F-Droid?"
    },
    "mirrors": {
        "cn": "Txina kontinentala",
        "de": "Alemania",
        "indiana": "Indiana, AEB",
        "se": "Suedia",
        "tw": "Taiwan",
        "ua": "Ukraina"
    },
    "navigation": {
        "about": "Honi buruz",
        "apps": "Aplikazioak",
        "contribute": "Hartu parte",
        "documentation": "Dokumentuak",
        "edit_on_gitlab": "Editatu GitLab-en",
        "forum": "Foroa",
        "issues": "Arazoak",
        "news": "Berriak",
        "translate_on_weblate": "Itzuli Weblate-n"
    },
    "news": {
        "newer_posts": "← Bidalketa berriagoak",
        "older_posts": "Bidalketa zaharragoak →",
        "posted_on": "{{ post_date }}(a)n argitaratua"
    },
    "package": {
        "added_on": "{{ package_added_date }}-an gehituta",
        "anti_features": "Ezaugarri zalantzagarriak",
        "anti_features_warning": "Aplikazio honek agian gustuko ez dituzun ezaugarriak ditu.",
        "author": "Egilea",
        "build_log": "Eraiketa egunkaria",
        "build_metadata": "Konpilazioaren metadatuak",
        "changelog": "Aldaketa-egunkaria",
        "donate": "Dohaintza",
        "download": "Deskargatu {{ file_extension }}",
        "flattr": "Flattr",
        "gpg_signature": "PGP sinadura",
        "issue_tracker": "Akats kudeatzailea",
        "liberapay": "Liberapay",
        "license": "Lizentzia",
        "minimum_android_version": "Bertsio honek Android {{ android_version }} edo berriagoa behar du.",
        "new_in_version": "{{ latest_version }} bertsioan berria",
        "opencollective": "Open Collective",
        "package_icon_alt": "paketearen ikonoa",
        "package_screenshot_alt": "aplikazioaren pantaila-argazkia",
        "packages": "Paketeak",
        "permissions": "Baimenak",
        "signed_by_developer": "Jatorrizko garatzaileak sortu eta sinatutakoa da.",
        "signed_by_fdroid": "F-Droid proiektuak sortu eta sinatutakoa da, eta <a href=\"{{ source_code_url }}\">iturburuaren tarball honekin</a> bat datorrela bermatzen dugu.",
        "source_code": "Iturburu-kodea",
        "suggest_downloading_via_fdroid": "Behean APK fitxategiak deskargatzeko aukera ematen bazaizu ere, jakin hauek zuzenean instalatuz gero ez duzula eguneraketen berri jasoko eta deskargatzeko modu ez seguruagoa dela. F-Droid bezeroa instalatu eta berau erabiltzea aholkatzen dizugu.",
        "suggested": "iradokita",
        "translation": "Itzulpena",
        "version_info": "<b>{{ package_version }} bertsioa</b> ({{ package_version_code }})",
        "versions": "Bertsioak",
        "website": "Webgunea"
    },
    "permissions": {
        "permdesc_acceptHandovers": "Beste aplikazio batean hasitako dei bat jarraitzea baimentzen dio aplikazioari.",
        "permdesc_accessBackgroundLocation": "Aplikazioak kokapena atzi dezake, baita aplikazioa erabiltzen ari ez zarenean ere.",
        "permdesc_accessCoarseLocation": "Abian denean, aplikazioak gutxi gorabeherako kokapena lor dezake kokapen-zerbitzuen bidez. Aplikazioak kokapena lortu ahal izateko, kokapen-zerbitzuek aktibatuta egon behar dute gailuan.",
        "permdesc_accessDrmCertificates": "DRM ziurtagiriez hornitzeko eta erabiltzeko baimena ematen die aplikazioei. Aplikazio normalek ez lukete inoiz beharko.",
        "permdesc_accessFineLocation": "Abian denean, aplikazioak kokapen zehatza lor dezake kokapen-zerbitzuen bidez. Aplikazioak kokapena lortu ahal izateko, kokapen-zerbitzuek aktibatuta egon behar dute gailuan. Bateria-erabilera areagotzen du horrek.",
        "permdesc_accessImsCallService": "Zuk ezer egin beharrik gabe deiak egiteko IMS zerbitzua erabiltzeko baimena ematen die aplikazioei.",
        "permdesc_accessLocationExtraCommands": "Kokapen-hornitzailearen agindu gehigarriak atzitzeko baimena ematen die aplikazioei. Horrela, agian aplikazioek GPSaren edo bestelako kokapenaren iturburuen funtzionamenduan eragina izan dezakete.",
        "permdesc_accessNetworkConditions": "Sareko baldintzak hautemateko aukera ematen die aplikazioei. Aplikazio normalek ez dute baimen hau behar.",
        "permdesc_accessNetworkState": "Sareko konexioei buruzko informazioa ikusteko baimena ematen die aplikazioei; adibidez, zer sare dauden eta zeintzuk dauden konektatuta.",
        "permdesc_accessNotifications": "Jakinarazpenak berreskuratu, aztertu eta garbitzeko aukera ematen die aplikazioei, beste aplikazioek argitaratutako jakinarazpenak barne.",
        "permdesc_accessWifiState": "Wi-Fi sareei buruzko informazioa ikusteko baimena ematen die aplikazioei, adibidez, Wi-Fi konexioa aktibatuta dagoen eta konektatutako Wi-Fi gailuen izenak zein diren.",
        "permdesc_accessWimaxState": "WiMAX gaituta dagoen zehazteko eta konektatutako WiMAX sareei buruzko informazioa ikusteko baimena ematen die aplikazioei.",
        "permdesc_access_notification_policy": "\"Ez molestatu\" konfigurazioa irakurtzeko eta bertan idazteko baimena ematen die aplikazioei.",
        "permdesc_activityRecognition": "Aplikazio honek zure jarduera fisikoa aitortu dezake.",
        "permdesc_addVoicemail": "Erantzungailuko sarrera-ontzian mezuak gehitzeko baimena ematen die aplikazioei.",
        "permdesc_answerPhoneCalls": "Sarrerako deiak hartzea baimentzen die aplikazioei.",
        "permdesc_audioWrite": "Aplikazioari aukera ematen dio zure musika bilduma aldatzeko.",
        "permdesc_backgroundCamera": "Aplikazioak edonoiz erabil dezake kamera argazkiak ateratzeko eta bideoak grabatzeko.",
        "permdesc_bindCarrierMessagingService": "Operadore baten mezularitza-zerbitzuaren goi-mailako interfazeari lotzea baimentzen die erabiltzaileei. Aplikazio normalek ez lukete inoiz beharko.",
        "permdesc_bindCarrierServices": "Operadorearen zerbitzuei lotzea baimentzen die titularrei. Aplikazio normalek ez dute baimen hau behar.",
        "permdesc_bindCellBroadcastService": "Sare mugikor bidezko igorpen-modulura lotzeko baimena ematen dio aplikazioari, sare mugikor bidezko igorpen-mezuak jaso ahala desbideratu ahal izateko. Sare mugikor bidezko igorpen-alertak kokapen batzuetan entregatzen dira larrialdi-egoeren berri emateko. Sare mugikor bidezko larrialdi-igorpenak jasotzean, aplikazio gaiztoek gailuaren errendimenduari edota funtzionamenduari eragin diezaiokete.",
        "permdesc_bindConditionProviderService": "Baldintza-hornitzaileen zerbitzuen goi-mailako interfazeari lotzea baimentzen die titularrei. Aplikazio normalek ez lukete beharko.",
        "permdesc_bindDreamService": "Dream zerbitzu baten goi-mailako interfazeari lotzea baimentzen die titularrei. Aplikazio normalek ez lukete beharko.",
        "permdesc_bindNotificationListenerService": "Jakinarazpen-hautemaile baten goi-mailako interfazera lotzeko aukera ematen dio titularrari. Aplikazio normalek ez dute baimen hau behar.",
        "permdesc_bind_connection_service": "Deiak egiteko eta jasotzeko telefonia-zerbitzuekin interakzioan aritzea baimentzen die aplikazioei.",
        "permdesc_bind_incall_service": "Erabiltzaileak deiaren pantaila noiz eta nola ikusten duen kontrolatzeko aukera ematen die aplikazioei.",
        "permdesc_bluetooth": "Telefonoaren Bluetootharen konfigurazioa ikusteko eta bikotetutako gailuekin konexioak egiteko eta onartzeko baimena ematen die aplikazioei.",
        "permdesc_bluetoothAdmin": "Tokiko Bluetooth telefonoa konfiguratzea eta urruneko gailuak detektatzea eta haiekin parekatzea baimentzen die aplikazioei.",
        "permdesc_bluetooth_advertise": "Inguruko Bluetooth bidezko gailuetan informazioa iragartzeko baimena ematen die aplikazioei",
        "permdesc_bluetooth_connect": "Parekatutako Bluetooth bidezko gailuetara konektatzeko baimena ematen die aplikazioei",
        "permdesc_bluetooth_scan": "Inguruko Bluetooth bidezko gailuak hautemateko eta haiekin parekatzeko baimena ematen die aplikazioei",
        "permdesc_bodySensors": "Zure egoera fisikoa kontrolatzen duten sentsoreetako datuak (adibidez, bihotz-maiztasuna) atzitzeko baimena ematen die aplikazioei.",
        "permdesc_bodySensors_background": "Aplikazioak atzeko planoan egon bitartean, gorputz-sentsoreen datuak (besteak beste, bihotz-maiztasuna, tenperatura eta odolean dagoen oxigenoaren ehunekoa) erabiltzeko baimena ematen die aplikazio horiei.",
        "permdesc_broadcastSticky": "Igorpen iraunkorrak emateko baimena ematen die; horiek igorpena amaitu ondoren mantentzen dira. Gehiegi erabiliz gero, telefonoa motel edo ezegonkor ibiliko da, memoria gehiago erabiliko delako.",
        "permdesc_callCompanionApp": "Aplikazioari aukera ematen dio gailuan dauden deiak ikusteko eta kontrolatzeko. Horrek informazioa, hala nola, deien zenbakien zenbakia eta deien egoera.",
        "permdesc_callPhone": "Telefono-zenbakietara zuk esku hartu gabe deitzeko baimena ematen die aplikazioei. Horrela, ustekabeko gastuak edo deiak eragin daitezke. Aplikazio gaiztoek erabil dezakete zuk berretsi gabeko deiak eginda gastuak eragiteko.",
        "permdesc_camera": "Aplikazioak abian den bitartean erabil dezake kamera argazkiak ateratzeko eta bideoak grabatzeko.",
        "permdesc_cameraOpenCloseListener": "Kamera ireki edo itxi dela (zein aplikaziorekin) dioten jakinarazpenak jaso ditzake aplikazio honek.",
        "permdesc_changeNetworkState": "Sarearen konexioaren egoera aldatzeko baimena ematen die aplikazioei.",
        "permdesc_changeTetherState": "Partekatutako Interneterako konexioaren egoera aldatzeko baimena ematen die aplikazioei.",
        "permdesc_changeWifiMulticastState": "Wi-Fi sarearen bidez gailu guztiei bidalitako paketeak jasotzeko baimena ematen die aplikazioei multidifusio-helbideak erabilita, ez telefonoa soilik. Multidifusiokoa ez den moduak baino bateria gehiago erabiltzen du.",
        "permdesc_changeWifiState": "Wi-Fi sarbide-puntuetara konektatzeko edo haietatik deskonektatzeko baimena ematen die aplikazioei, baita Wi-Fi sareen gailu-konfigurazioari aldaketak egitekoa ere.",
        "permdesc_changeWimaxState": "Telefonoa WiMAX sareetara konektatzeko edo haietatik deskonektatzeko baimena ematen die aplikazioei.",
        "permdesc_companionProfileWatch": "Erlojuak kudeatzeko baimena ematen die aplikazio osagarriei.",
        "permdesc_connection_manager": "Telekomunikabideekiko konexioak kudeatzea baimentzen die aplikazioei.",
        "permdesc_control_incall_experience": "Deiak abian direnean erabiltzeko aukera eskaintzea baimentzen die aplikazioei.",
        "permdesc_createNetworkSockets": "Sare-socketak sortzeko eta sare-protokolo pertsonalizatuak erabiltzeko baimena ematen die aplikazioei. Arakatzaileak eta beste aplikazio batzuek Internetera konektatzeko moduak eskaintzen dituzte, beraz, baimen hori ez da beharrezkoa datuak Internetera bidaltzeko.",
        "permdesc_deliverCompanionMessages": "Beste gailuetan mezuak entregatzeko baimena ematen die aplikazio osagarriei.",
        "permdesc_detectScreenCapture": "Aplikazioa erabili bitartean pantaila-argazki bat ateratzen denean, jakinarazpen bat jasoko duzu aplikazioan.",
        "permdesc_disableKeyguard": "Teklen blokeoa eta erlazionatutako pasahitz-segurtasuna desgaitzeko baimena ematen die aplikazioei. Adibidez, telefonoak teklen blokeoa desgaitzen du telefono-deiak jasotzen dituenean, eta berriro gaitzen du deiak amaitzean.",
        "permdesc_enableCarMode": "Auto modua gaitzea baimentzen die aplikazioei.",
        "permdesc_exemptFromAudioRecordRestrictions": "Salbuetsi aplikazioa audioa grabatzeko murriztapenen aurrean.",
        "permdesc_expandStatusBar": "Egoera-barra zabaltzeko edo tolesteko aukera ematen die aplikazioei.",
        "permdesc_foregroundService": "Aurreko planoko zerbitzuak erabiltzea baimentzen dio aplikazioari.",
        "permdesc_foregroundServiceCamera": "Aurreko planoko zerbitzuak (camera motakoak) erabiltzeko baimena ematen dio aplikazioari",
        "permdesc_foregroundServiceConnectedDevice": "Aurreko planoko zerbitzuak (connectedDevice motakoak) erabiltzeko baimena ematen dio aplikazioari",
        "permdesc_foregroundServiceDataSync": "Aurreko planoko zerbitzuak (dataSync motakoak) erabiltzeko baimena ematen dio aplikazioari",
        "permdesc_foregroundServiceFileManagement": "Aurreko planoko zerbitzuak (fileManagement motakoak) erabiltzeko baimena ematen die aplikazioei.",
        "permdesc_foregroundServiceHealth": "Aurreko planoko zerbitzuak (health motakoak) erabiltzeko baimena ematen dio aplikazioari",
        "permdesc_foregroundServiceLocation": "Aurreko planoko zerbitzuak (location motakoak) erabiltzeko baimena ematen dio aplikazioari",
        "permdesc_foregroundServiceMediaPlayback": "Aurreko planoko zerbitzuak (mediaPlayback motakoak) erabiltzeko baimena ematen dio aplikazioari",
        "permdesc_foregroundServiceMediaProjection": "Aurreko planoko zerbitzuak (mediaProjection motakoak) erabiltzeko baimena ematen dio aplikazioari",
        "permdesc_foregroundServiceMicrophone": "Aurreko planoko zerbitzuak (microphone motakoak) erabiltzeko baimena ematen dio aplikazioari",
        "permdesc_foregroundServicePhoneCall": "Aurreko planoko zerbitzuak (phoneCall motakoak) erabiltzeko baimena ematen dio aplikazioari",
        "permdesc_foregroundServiceRemoteMessaging": "Aurreko planoko zerbitzuak (remoteMessaging motakoak) erabiltzeko baimena ematen dio aplikazioari",
        "permdesc_foregroundServiceSpecialUse": "Aurreko planoko zerbitzuak (specialUse motakoak) erabiltzeko baimena ematen dio aplikazioari",
        "permdesc_foregroundServiceSystemExempted": "Aurreko planoko zerbitzuak (systemExempted motakoak) erabiltzeko baimena ematen dio aplikazioari",
        "permdesc_fullScreenIntent": "Blokeatutako gailu batean jakinarazpenak pantaila osoko jarduera gisa bistaratzeko baimena ematen die aplikazioei",
        "permdesc_getAccounts": "Telefonoak ezagutzen dituen kontuen zerrenda lortzeko baimena ematen die aplikazioei. Instalatuta dituzun aplikazioek sortutako kontuak har daitezke barnean.",
        "permdesc_getPackageSize": "Bere kodea, datuak eta cache-tamainak eskuratzeko baimena ematen die aplikazioei",
        "permdesc_getTasks": "Unean edo duela gutxi exekutatutako zereginei buruzko informazioa lortzeko baimena ematen die aplikazioei. Horrela, aplikazioak gailuan erabiltzen ari diren aplikazioei buruzko informazioa ezagut dezake.",
        "permdesc_handoverStatus": "Uneko Android Beam transferentziei buruzko informazioa jasotzeko baimena ematen die aplikazioei",
        "permdesc_hideOverlayWindows": "Beste aplikazioak bere gainean jar ez daitezen, baliteke gainjartze horiek ezkutatzeko eskatzea aplikazioak sistemari.",
        "permdesc_highSamplingRateSensors": "Aplikazioak 200 Hz-tik gorako abiaduran hartu ahal izango ditu sentsoreen datuen laginak",
        "permdesc_imagesWrite": "Aplikazioari zure argazki bilduma aldatzeko aukera ematen dio.",
        "permdesc_install_shortcut": "Erabiltzaileak ezer egin gabe hasierako pantailan lasterbideak gehitzeko aukera ematen die aplikazioei.",
        "permdesc_invokeCarrierSetup": "Operadorearen konfigurazio-aplikazioari deitzeko aukera ematen dio titularrari. Aplikazio normalek ez dute baimen hau behar.",
        "permdesc_killBackgroundProcesses": "Beste aplikazioen atzeko planoko prozesuak amaitzeko baimena ematen die aplikazioei. Horrela, agian aplikazio batzuk exekutatzeari utziko zaio.",
        "permdesc_manageFace": "Aurpegi-txantiloiak gehitu eta ezabatzeko metodoei deitzea ahalbidetzen dio aplikazioari.",
        "permdesc_manageFingerprint": "Erreferentzia-gako digitalen txantiloiak gehitzeko eta ezabatzeko metodoei dei egitea baimentzen die aplikazioei.",
        "permdesc_manageNetworkPolicy": "Sareko gidalerroak kudeatzea eta aplikazioetarako berariazko arauak definitzea baimentzen die aplikazioei.",
        "permdesc_manageOngoingCalls": "Gailuak jasotzen dituen deiei buruzko xehetasunak ikusteko eta dei horiek kontrolatzeko baimena ematen die aplikazioei.",
        "permdesc_manageOwnCalls": "Deiak sistemaren bidez bideratzea baimentzen die aplikazioei, deien zerbitzua ahal bezain ona izan dadin.",
        "permdesc_manageProfileAndDeviceOwners": "Profilaren eta gailuaren jabeak zehazteko baimena ematen die aplikazioei.",
        "permdesc_mediaLocation": "Multimedia-edukien bildumako kokapena irakurtzea ahalbidetzen die aplikazioei.",
        "permdesc_modifyAudioSettings": "Audio-ezarpen orokorrak aldatzeko baimena ematen dio; besteak beste, bolumena eta irteerarako zer bozgorailu erabiltzen den.",
        "permdesc_modifyNetworkAccounting": "Aplikazioen sare-erabilera kalkulatzeko modua aldatzeko baimena ematen die aplikazioei. Aplikazio normalek ez lukete beharko.",
        "permdesc_nearby_wifi_devices": "Inguruko wifi-gailuetan iragartzeko, haiekin konektatzeko eta haien kokapena zehazteko baimena ematen die aplikazioei",
        "permdesc_nfc": "Near Field Communication (NFC) etiketekin, txartelekin eta irakurgailuekin komunikatzea baimentzen die aplikazioei.",
        "permdesc_observeCompanionDevicePresence": "Gailu osagarrien presentzia begiratzeko baimena ematen die aplikazio osagarriei gailuak inguruan edo urrun daudenean.",
        "permdesc_persistentActivity": "Beren zati batzuk memoria modu iraunkorrean ezartzeko baimena ematen die aplikazioei. Horrela, beste aplikazioek erabilgarri duten memoria murritz daiteke eta telefonoa motel daiteke.",
        "permdesc_postNotification": "Jakinarazpenak erakusteko baimena ematen die aplikazioei",
        "permdesc_preferredPaymentInfo": "Aplikazioari baimena ematen dio NFC bidezko ordainketa-zerbitzu lehenetsiari buruzko informazioa jasotzeko, hala nola, erregistratutako laguntzaileak eta ibilbidearen helmuga.",
        "permdesc_processOutgoingCalls": "Irteerako deian markatutako zenbakia ikusteko baimena ematen die aplikazioei, deia beste zenbaki batera birbideratzeko edo deia bertan behera uzteko aukerarekin.",
        "permdesc_queryAllPackages": "Instalatutako pakete guztiak ikusteko baimena ematen dio aplikazioari.",
        "permdesc_readBasicPhoneState": "Gailuaren oinarrizko eginbide telefonikoak erabiltzeko baimena ematen dio aplikazioari.",
        "permdesc_readCalendar": "Aplikazioak telefonoan gordetako egutegiko gertaerak irakur ditzake eta egutegiko datuak parteka eta gorde ditzake.",
        "permdesc_readCallLog": "Aplikazioak deien historia irakur dezake.",
        "permdesc_readCellBroadcasts": "Gailuak jasotako sare mugikor bidezko igorpenen mezuak irakurtzeko baimena ematen die aplikazioei. Sare mugikor bidezko igorpen-alertak kokapen batzuetan ematen dira larrialdi-egoeren berri emateko. Aplikazio gaiztoek gailuaren errendimendua edo funtzionamendua oztopa dezakete larrialdi-igorpen horietako bat jasotzen denean.",
        "permdesc_readContacts": "Telefonoan gordetako kontaktuei buruzko datuak irakurtzeko baimena ematen dio aplikazioari. Kontaktuak sortu dituzten telefonoko kontuak ere atzitu ahalko dituzte aplikazioek. Horrek barnean hartuko ditu instalatutako aplikazioek sortutako kontuak, agian. Baimen horrekin, kontaktuen datuak gorde ditzakete aplikazioek, eta baliteke aplikazio gaiztoek zuk jakin gabe partekatzea datu horiek.",
        "permdesc_readHistoryBookmarks": "Arakatzailearen bidez bisitatutako URL guztien historia eta arakatzailearen laster-marka guztiak irakurtzeko baimena ematen die aplikazioei. Oharra: agian baimen hori ez dute aplikatuko hirugarrenen arakatzaileek edo sarea arakatzeko gaitasuna duten bestelako aplikazioek.",
        "permdesc_readInstallSessions": "Instalazio-saioak irakurtzeko baimena ematen die aplikazioei. Horrela, pakete-instalazio aktiboei buruzko xehetasunak ikus ditzakete.",
        "permdesc_readMediaAudio": "Biltegi partekatuko audio-fitxategiak irakurtzeko baimena ematen die aplikazioei.",
        "permdesc_readMediaImages": "Biltegi partekatuko irudi-fitxategiak irakurtzeko baimena ematen die aplikazioei.",
        "permdesc_readMediaVideo": "Biltegi partekatuko bideo-fitxategiak irakurtzeko baimena ematen die aplikazioei.",
        "permdesc_readNetworkUsageHistory": "Sare eta aplikazio jakin batzuen sare-erabileraren historia irakurtzeko baimena ematen die aplikazioei.",
        "permdesc_readPhoneNumbers": "Gailuaren telefono-zenbakiak atzitzeko baimena ematen die aplikazioei.",
        "permdesc_readPhoneState": "Gailuaren telefono-eginbideak atzitzeko baimena ematen die aplikazioei. Baimen horrek aplikazioari telefono-zenbakia eta gailu IDak zein diren, deirik aktibo dagoen eta deia zer zenbakirekin konektatuta dagoen zehazteko baimena ematen die aplikazioei.",
        "permdesc_readSms": "Aplikazioak telefonoan gordetako SMS mezu (testu-mezu) guztiak irakur ditzake.",
        "permdesc_readSyncSettings": "Kontu baten sinkronizazio-ezarpenak irakurtzeko baimena ematen die aplikazioei. Adibidez, Jendea aplikazioa konturen batekin sinkronizatuta dagoen zehatz dezake.",
        "permdesc_readSyncStats": "Kontu baten sinkronizazio-estatistikak irakurtzeko baimena ematen dio; besteak beste, sinkronizazio-gertaeren historia eta sinkronizatutako datu kopurua.",
        "permdesc_readVisualUserSelect": "Biltegi partekatuko irudi- eta bideo-fitxategiak irakurtzeko baimena ematen die aplikazioei.",
        "permdesc_receiveBootCompleted": "Sistema berrabiarazi bezain laster abiarazteko baimena ematen die aplikazioei. Horrela, agian denbora gehiago beharko du telefonoak abiarazteko, eta telefonoaren funtzionamendu orokorra mantso daiteke, baimen hori duten aplikazioak beti abian egongo baitira.",
        "permdesc_receiveMms": "MMS mezuak jasotzeko eta prozesatzeko baimena ematen die aplikazioei. Horrela, aplikazioak gailura bidalitako mezuak kontrola eta ezaba ditzake zuri erakutsi gabe.",
        "permdesc_receiveSms": "SMS mezuak jasotzeko eta prozesatzeko baimena ematen die aplikazioei. Horrela, aplikazioak gailura bidalitako mezuak kontrola eta ezaba ditzake zuri erakutsi gabe.",
        "permdesc_receiveWapPush": "WAP mezuak jasotzeko eta prozesatzeko baimena ematen die aplikazioei. Horrela, aplikazioak, besteak beste, gailura bidalitako mezuak kontrola eta ezaba ditzake zuri erakutsi gabe.",
        "permdesc_recordAudio": "Aplikazioak abian den bitartean erabil dezake mikrofonoa audioa grabatzeko.",
        "permdesc_recordBackgroundAudio": "Aplikazioak edonoiz erabil dezake mikrofonoa audioa grabatzeko.",
        "permdesc_register_call_provider": "Telekomunikabideekiko konexio berriak erregistratzea baimentzen die aplikazioei.",
        "permdesc_register_sim_subscription": "Telekomunikabideekiko SIM konexio berriak erregistratzea baimentzen die aplikazioei.",
        "permdesc_removeDrmCertificates": "DRM ziurtagiriak kentzea baimentzen die aplikazioei. Aplikazio normalek ez lukete beharko.",
        "permdesc_reorderTasks": "Zereginak aurreko eta atzeko planora eramateko baimena ematen die aplikazioei. Aplikazioak zuk ezer egin gabe egin dezake hori.",
        "permdesc_requestDeletePackages": "Paketeak ezabatzeko eskatzea baimentzen die aplikazioei.",
        "permdesc_requestIgnoreBatteryOptimizations": "Bateriaren optimizazioei ez ikusi egiteko baimena eskatzea baimentzen die aplikazioei.",
        "permdesc_requestInstallPackages": "Paketeak instalatzeko eskatzea baimentzen die aplikazioei.",
        "permdesc_requestPasswordComplexity": "Pantailaren blokeoaren konplexutasun-maila (handia, ertaina, txikia edo bat ere ez) jakiteko aukera ematen dio aplikazioari. Informazio horrekin, pantailaren blokeoaren luzera-barruti edo mota posiblea ondoriozta liteke. Halaber, pantailaren blokeoa maila jakin batera igotzeko iradoki diezaieke aplikazioak erabiltzaileei, baina horri ez ikusi egin eta aplikazioa erabiltzen jarraitzeko aukera dute erabiltzaileek. Kontuan izan pantailaren blokeoa ez dela gordetzen testu arrunt gisa; beraz, aplikazioak ez du jakingo pasahitz zehatza zein den.",
        "permdesc_route_media_output": "Multimedia elementuak kanpoko gailuetara bideratzeko baimena ematen die aplikazioei.",
        "permdesc_runInBackground": "Atzeko planoan exekuta liteke aplikazioa eta horrek bizkorrago agor lezake bateria.",
        "permdesc_schedule_exact_alarm": "Aplikazio honek ekintzak programa ditzake etorkizunean egin daitezen. Horrek esan nahi du gailua aktiboki erabiltzen ari ez zarenean ere exekuta daitekeela aplikazioa.",
        "permdesc_sdcardRead": "Biltegiratze partekatuko edukia irakurtzeko baimena ematen die aplikazioei.",
        "permdesc_sdcardWrite": "Biltegiratze partekatuko edukian idazteko baimena ematen die aplikazioei.",
        "permdesc_sendSms": "SMS mezuak bidaltzeko baimena ematen die aplikazioei. Horrela, ustekabeko gastuak eragin daitezke. Aplikazio gaiztoek erabil dezakete zuk berretsi gabeko mezuak bidalita gastuak eragiteko.",
        "permdesc_setAlarm": "Instalatutako alarma batean alarmak ezartzea baimentzen die aplikazioei. Alarma-aplikazio batzuek agian ez dute eginbide hori inplementatuko.",
        "permdesc_setInputCalibration": "Ukipen-pantailaren kalibrazio-parametroak aldatzeko baimena ematen die aplikazioei. Aplikazio normalek ez lukete beharko.",
        "permdesc_setTimeZone": "Telefonoaren ordu-zona aldatzeko baimena ematen die aplikazioei.",
        "permdesc_setWallpaper": "Sistemaren horma-papera aldatzeko baimena ematen die aplikazioei.",
        "permdesc_setWallpaperHints": "Sistemaren horma-paperaren tamainaren doitzeak ezartzea baimentzen die aplikazioei.",
        "permdesc_sim_communication": "SIM txartelera aginduak bidaltzeko aukera ematen die aplikazioei. Oso arriskutsua da.",
        "permdesc_startForegroundServicesFromBackground": "Aurreko planoko zerbitzuak atzeko planotik abiarazteko baimena ematen die aplikazio osagarriei.",
        "permdesc_startReviewPermissionDecisions": "Baimenen inguruko erabakiak berrikusteko pantaila ikusten hasteko baimena ematen die titularrei. Aplikazio normalek ez lukete beharko.",
        "permdesc_startViewAppFeatures": "Aplikazio baten eginbideei buruzko informazioa ikusten hasteko baimena ematen die titularrei.",
        "permdesc_startViewPermissionUsage": "Aplikazioaren baimena erabiltzen hastea ahalbidetzen die titularrei. Aplikazio normalek ez lukete beharko.",
        "permdesc_statusBar": "Egoera-barra desgaitzea edo sistema-ikonoak gehitzea edo kentzea baimentzen die aplikazioei.",
        "permdesc_statusBarService": "Egoera-barra izatea baimentzen die aplikazioei.",
        "permdesc_subscribedFeedsRead": "Unean sinkronizatutako jarioei buruzko xehetasunak lortzeko baimena ematen die aplikazioei.",
        "permdesc_systemAlertWindow": "Beste aplikazio batzuen edo pantailako beste zati batzuen gainean ager daiteke aplikazioa. Aplikazioaren funtzionamendu normala oztopa dezake eta beste aplikazio batzuen itxura alda dezake.",
        "permdesc_systemCamera": "Pribilegiodun edo sistemakoa den aplikazio honek edonoiz erabil dezake kamera argazkiak ateratzeko eta bideoak grabatzeko. Halaber, android.permission.CAMERA baimena izan behar du aplikazioak.",
        "permdesc_transmitIr": "Telefonoaren infragorri-igorlea erabiltzeko aukera ematen die aplikazioei.",
        "permdesc_turnScreenOn": "Pantaila pizteko baimena ematen dio aplikazioari.",
        "permdesc_uninstall_shortcut": "Erabiltzaileak ezer egin gabe hasierako pantailako lasterbideak kentzeko aukera ematen die aplikazioei.",
        "permdesc_updatePackagesWithoutUserAction": "Lehendik instalatu duen aplikazioa erabiltzaileak ezer egin gabe eguneratzeko baimena ematen dio titularrari",
        "permdesc_useBiometric": "Autentifikatzeko hardware biometrikoa erabiltzeko baimena ematen die aplikazioei",
        "permdesc_useDataInBackground": "Aplikazioak datuak erabil litzake atzeko planoan eta horrek datuen erabilera areago lezake.",
        "permdesc_useFaceAuthentication": "Autentifikazioa egiteko aurpegiaren bidez desblokeatzeko hardwarea erabiltzeko baimena ematen dio aplikazioari",
        "permdesc_useFingerprint": "Autentifikatzeko erreferentzia-gako digitalen hardwarea erabiltzeko baimena ematen die aplikazioei",
        "permdesc_use_exact_alarm": "Aplikazioak hainbat ekintza programa ditzake; adibidez, alarmak eta abisuak, etorkizuneko une batean jakinarazpen bat jaso dezazun.",
        "permdesc_use_sip": "SIP deiak egitea eta jasotzeko baimena ematen die aplikazioei.",
        "permdesc_uwb_ranging": "Banda ultrazabala darabilten inguruko gailuen arteko distantzia erlatiboa zehazteko baimena ematen dio aplikazioari",
        "permdesc_vibrate": "Bibragailua kontrolatzeko aukera ematen die aplikazioei.",
        "permdesc_vibrator_state": "Dardara-egoera atzitzeko baimena ematen dio aplikazioari.",
        "permdesc_videoWrite": "Bideo-bilduma aldatzea ahalbidetzen die aplikazioei.",
        "permdesc_wakeLock": "Telefonoa inaktibo ezartzea galaraztea baimentzen die aplikazioei.",
        "permdesc_writeCalendar": "Telefonoko gertaerak gehitzeko, kentzeko edo aldatzeko aukera du aplikazioak. Gainera, egutegien jabeenak diruditen mezuak bidal ditzake, eta gertaerak alda ditzake jabeei beraiei jakinarazi gabe.",
        "permdesc_writeCallLog": "Telefonoaren deien erregistroa aldatzeko baimena ematen die aplikazioei, sarrerako eta irteerako deiei buruzko datuak barne. Aplikazio gaiztoek deien erregistroa ezabatzeko edo aldatzeko erabil dezakete.",
        "permdesc_writeContacts": "Telefonoan gordetako kontaktuei buruzko datuak aldatzeko baimena ematen dio aplikazioari. Baimen horrekin, aplikazioek kontaktuen datuak ezaba ditzakete.",
        "permdesc_writeGeolocationPermissions": "Arakatzailearen geokokapenaren baimenak aldatzeko baimena ematen die aplikazioei. Aplikazio gaiztoek hori erabil dezakete kokapenari buruzko informazioa haiek hautatutako webguneetara bidaltzeko.",
        "permdesc_writeHistoryBookmarks": "Arakatzailearen historia edo telefonoan gordetako laster-markak aldatzeko baimena ematen die aplikazioei. Horrela, aplikazioak agian arakatzaile-datuak ezabatu edo aldatu ahal izango ditu. Oharra: baimen hori hirugarrenen arakatzaileek edo sarea arakatzeko gaitasuna eskaintzen duten bestelako aplikazioek aplika dezakete.",
        "permdesc_writeSettings": "Sistemaren ezarpenen datuak aldatzeko baimena ematen die aplikazioei. Aplikazio gaiztoek sistemaren konfigurazioa hondatzeko erabil dezakete.",
        "permdesc_writeSyncSettings": "Kontu baten sinkronizazio-ezarpenak aldatzeko baimena ematen die aplikazioei. Adibidez, Jendea aplikazioa kontu batekin sinkronizatzeko erabil daiteke.",
        "permgroupbackgroundrequest_location": "Baimendu aplikazioari atzeko planoko jakinarazpena eskatzea.",
        "permgroupbackgroundrequestdetail_location": "Aplikazioak soilik hura darabilzunean atzi dezake kokapena orain",
        "permgroupdesc_activityRecognition": "ariketa fisikoak atzitu",
        "permgroupdesc_calendar": "atzitu egutegia",
        "permgroupdesc_calllog": "irakurri telefonoko deien erregistroa eta idatzi bertan",
        "permgroupdesc_camera": "atera argazkiak eta grabatu bideoak",
        "permgroupdesc_contacts": "atzitu kontaktuak",
        "permgroupdesc_location": "atzitu gailuaren kokapena",
        "permgroupdesc_microphone": "grabatu audioa",
        "permgroupdesc_nearby_devices": "inguruko gailuak hauteman eta haietara konektatu",
        "permgroupdesc_notifications": "jakinarazpenak erakutsi",
        "permgroupdesc_phone": "egin eta kudeatu telefono-deiak",
        "permgroupdesc_readMediaAural": "atzitu gailuko musika eta audioak",
        "permgroupdesc_readMediaVisual": "atzitu gailuko argazkiak eta bideoak",
        "permgroupdesc_sensors": "atzitu bizi-konstanteei buruzko sentsorearen datuak",
        "permgroupdesc_sms": "bidali eta ikusi SMS mezuak",
        "permgroupdesc_storage": "atzitu gailuko argazkiak, multimedia-edukia eta fitxategiak",
        "permgrouplab_activityRecognition": "Ariketa fisikoa",
        "permgrouplab_calendar": "Egutegia",
        "permgrouplab_calllog": "Deien erregistroa",
        "permgrouplab_camera": "Kamera",
        "permgrouplab_contacts": "Kontaktuak",
        "permgrouplab_location": "Kokapena",
        "permgrouplab_microphone": "Mikrofonoa",
        "permgrouplab_nearby_devices": "Inguruko gailuak",
        "permgrouplab_notifications": "Jakinarazpenak",
        "permgrouplab_phone": "Telefonoa",
        "permgrouplab_readMediaAural": "Musika eta audioa",
        "permgrouplab_readMediaVisual": "Argazkiak eta bideoak",
        "permgrouplab_sensors": "Gorputz-sentsoreak",
        "permgrouplab_sms": "SMS mezuak",
        "permgrouplab_storage": "Fitxategiak",
        "permgrouprequest_activityRecognition": "Baimendu zure ariketa fisikoak atzitzea.",
        "permgrouprequest_calendar": "<b>",
        "permgrouprequest_calllog": "<b>",
        "permgrouprequest_camera": "<b>",
        "permgrouprequest_contacts": "<b>",
        "permgrouprequest_location": "<b>",
        "permgrouprequest_microphone": "<b>",
        "permgrouprequest_phone": "<b>",
        "permgrouprequest_sensors": "Bizi-konstanteei buruzko sentsorearen datuak atzitzeko baimena eman nahi diozu <b>",
        "permgrouprequest_sms": "<b>",
        "permgrouprequest_storage": "<b>",
        "permgrouprequestdetail_location": "Hura erabiltzen ari zarenean soilik atzituko du aplikazioak kokapena",
        "permlab_acceptHandover": "Jarraitu beste aplikazio batean hasitako deia",
        "permlab_accessBackgroundLocation": "atzitu kokapena atzeko planoan",
        "permlab_accessCoarseLocation": "atzitu gutxi gorabeherako kokapena aurreko planoan bakarrik",
        "permlab_accessDrmCertificates": "atzitu DRM ziurtagiriak",
        "permlab_accessFineLocation": "lortu kokapen zehatza aurreko planoan bakarrik",
        "permlab_accessImsCallService": "atzitu IMS dei-zerbitzua",
        "permlab_accessLocationExtraCommands": "atzitu kokapen-hornitzaileen komando gehigarriak",
        "permlab_accessNetworkConditions": "hauteman sarearen baldintzei buruzko behaketak",
        "permlab_accessNetworkState": "ikusi sareko konexioak",
        "permlab_accessNotifications": "atzitu jakinarazpenak",
        "permlab_accessWifiState": "ikusi Wi-Fi konexioak",
        "permlab_accessWimaxState": "WiMAX sarera konektatzea eta deskonektatzea",
        "permlab_access_notification_policy": "atzitu \"Ez molestatu\" egoera",
        "permlab_activityRecognition": "hauteman ariketa fisikoa",
        "permlab_addVoicemail": "gehitu erantzungailua",
        "permlab_answerPhoneCalls": "erantzun telefono-deiak",
        "permlab_audioWrite": "zure musika-bilduma aldatu",
        "permlab_backgroundCamera": "Argazkiak atera eta bideoak grabatu atzeko planoan.",
        "permlab_bindCarrierMessagingService": "lotu operadorearen mezularitza-zerbitzuari",
        "permlab_bindCarrierServices": "lotu operadorearen zerbitzuei",
        "permlab_bindCellBroadcastService": "Berbidali sare mugikor bidezko igorpen-mezuak",
        "permlab_bindConditionProviderService": "lotu baldintza-hornitzaileen zerbitzuei",
        "permlab_bindDreamService": "lotu dream zerbitzuei",
        "permlab_bindNotificationListenerService": "lotu jakinarazpen-hautemaile bati",
        "permlab_bind_connection_service": "jardun interakzioan telefono-zerbitzuekin",
        "permlab_bind_incall_service": "erabili pantaila deiak abian direnean",
        "permlab_bluetooth": "partekatu Bluetooth gailuekin",
        "permlab_bluetoothAdmin": "atzitu Bluetooth ezarpenak",
        "permlab_bluetooth_advertise": "inguruko Bluetooth bidezko gailuetan informazioa iragarri",
        "permlab_bluetooth_connect": "parekatutako Bluetooth bidezko gailuetara konektatu",
        "permlab_bluetooth_scan": "inguruko Bluetooth bidezko gailuak hauteman eta haiekin parekatu",
        "permlab_bodySensors": "Atzitu gorputzaren sentsoreak (adibidez, bihotz-maiztasunarenak)",
        "permlab_bodySensors_background": "Atzitu gorputz-sentsoreen datuak (adib., bihotz-maiztasunarenak) atzeko planoan",
        "permlab_broadcastSticky": "bidali igorpen erakargarria",
        "permlab_callCompanionApp": "ikusi eta kontrolatu deiak sistemaren bidez.",
        "permlab_callPhone": "deitu zuzenean telefono-zenbakietara",
        "permlab_camera": "atera argazkiak eta grabatu bideoak",
        "permlab_cameraOpenCloseListener": "Eman jakinarazpenak jasotzeko baimena aplikazioari edo zerbitzuari kamerak ireki edo ixten direnean.",
        "permlab_changeNetworkState": "aldatu sarearen konektagarritasuna",
        "permlab_changeTetherState": "aldatu telefono bidezko konektagarritasuna",
        "permlab_changeWifiMulticastState": "onartu Wi-Fi Multicast harrera",
        "permlab_changeWifiState": "konektatu Wi-Fira edo deskonektatu bertatik",
        "permlab_changeWimaxState": "Aldatu WiMAX egoera",
        "permlab_companionProfileWatch": "Aplikazio osagarrien erloju-profilaren baimena erlojuak kudeatzeko",
        "permlab_connection_manager": "kudeatu telekomunikabideekiko konexioak",
        "permlab_control_incall_experience": "eskaini erabiltzaileentzako aukerak deiak abian direnean",
        "permlab_createNetworkSockets": "izan sarerako sarbide osoa",
        "permlab_deliverCompanionMessages": "Entregatu aplikazio osagarrien mezuak",
        "permlab_detectScreenCapture": "hauteman pantaila-argazkiak aplikazioen leihoetan",
        "permlab_disableKeyguard": "desgaitu pantailaren blokeoa",
        "permlab_enableCarMode": "gaitu auto modua",
        "permlab_exemptFromAudioRecordRestrictions": "salbuetsi audioa grabatzeko murriztapenen aurrean",
        "permlab_expandStatusBar": "zabaldu/tolestu egoera-barra",
        "permlab_foregroundService": "Exekutatu zerbitzuak aurreko planoan",
        "permlab_foregroundServiceCamera": "exekutatu aurreko planoko zerbitzu bat (camera motakoa)",
        "permlab_foregroundServiceConnectedDevice": "exekutatu aurreko planoko zerbitzu bat (connectedDevice motakoa)",
        "permlab_foregroundServiceDataSync": "exekutatu aurreko planoko zerbitzu bat (dataSync motakoa)",
        "permlab_foregroundServiceFileManagement": "exekutatu aurreko planoko zerbitzu bat (fileManagement motakoa)",
        "permlab_foregroundServiceHealth": "exekutatu aurreko planoko zerbitzu bat (health motakoa)",
        "permlab_foregroundServiceLocation": "exekutatu aurreko planoko zerbitzu bat (location motakoa)",
        "permlab_foregroundServiceMediaPlayback": "exekutatu aurreko planoko zerbitzu bat (mediaPlayback motakoa)",
        "permlab_foregroundServiceMediaProjection": "exekutatu aurreko planoko zerbitzu bat (mediaProjection motakoa)",
        "permlab_foregroundServiceMicrophone": "exekutatu aurreko planoko zerbitzu bat (microphone motakoa)",
        "permlab_foregroundServicePhoneCall": "exekutatu aurreko planoko zerbitzu bat (phoneCall motakoa)",
        "permlab_foregroundServiceRemoteMessaging": "exekutatu aurreko planoko zerbitzu bat (remoteMessaging motakoa)",
        "permlab_foregroundServiceSpecialUse": "exekutatu aurreko planoko zerbitzu bat (specialUse motakoa)",
        "permlab_foregroundServiceSystemExempted": "exekutatu aurreko planoko zerbitzu bat (systemExempted motakoa)",
        "permlab_fullScreenIntent": "blokeatutako gailu batean jakinarazpenak pantaila osoko jarduera gisa bistaratzea",
        "permlab_getAccounts": "bilatu gailuko kontuak",
        "permlab_getPackageSize": "neurtu aplikazioen biltegiratzeko tokia",
        "permlab_getTasks": "eskuratu abian diren aplikazioak",
        "permlab_handoverStatus": "Jaso Android Beam transferentzien egoera",
        "permlab_hideOverlayWindows": "ezkutatu gainjarritako aplikazioak",
        "permlab_highSamplingRateSensors": "atzitu sentsoreen datuen laginak abiadura handian",
        "permlab_imagesWrite": "zure argazki-bilduma aldatu",
        "permlab_install_shortcut": "instalatu lasterbideak",
        "permlab_invokeCarrierSetup": "deitu operadorearen konfigurazio-aplikazioari",
        "permlab_killBackgroundProcesses": "itxi beste aplikazioak",
        "permlab_manageFace": "kudeatu aurpegiaren bidez desblokeatzeko hardwarea",
        "permlab_manageFingerprint": "kudeatu erreferentzia-gako digitalen hardwarea",
        "permlab_manageNetworkPolicy": "kudeatu sare-gidalerroak",
        "permlab_manageOngoingCalls": "Kudeatu abian dauden deiak",
        "permlab_manageOwnCalls": "bideratu deiak sistemaren bidez",
        "permlab_manageProfileAndDeviceOwners": "kudeatu profilen eta gailuen jabeak",
        "permlab_mediaLocation": "multimedia-edukien bildumako kokapena irakurri",
        "permlab_modifyAudioSettings": "aldatu audio-ezarpenak",
        "permlab_modifyNetworkAccounting": "aldatu sare-erabileraren kalkuluak",
        "permlab_nearby_wifi_devices": "inguruko wifi-gailuekin interakzioan jardun",
        "permlab_nfc": "kontrolatu Near Field Communication komunikazioa",
        "permlab_observeCompanionDevicePresence": "Begiratu gailu osagarrien presentzia",
        "permlab_persistentActivity": "izan aplikazioa beti abian",
        "permlab_postNotification": "jakinarazpenak erakutsi",
        "permlab_preferredPaymentInfo": "NFC bidezko ordainketa-zerbitzu lehenetsiari buruzko informazioa",
        "permlab_processOutgoingCalls": "birbideratu irteerako deiak",
        "permlab_queryAllPackages": "kontsultatu pakete guztiak",
        "permlab_readBasicPhoneState": "irakurri oinarrizko egoera telefonikoa eta identitatea",
        "permlab_readCalendar": "irakurri egutegiko gertaerak eta xehetasunak",
        "permlab_readCallLog": "irakurri deien erregistroa",
        "permlab_readCellBroadcasts": "irakurri sare mugikor bidezko igorpen-mezuak",
        "permlab_readContacts": "irakurri kontaktuak",
        "permlab_readHistoryBookmarks": "irakurri sareko laster-markak eta historia",
        "permlab_readInstallSessions": "irakurri instalazio-saioak",
        "permlab_readMediaAudio": "irakurri biltegi partekatuko audio-fitxategiak",
        "permlab_readMediaImages": "irakurri biltegi partekatuko irudi-fitxategiak",
        "permlab_readMediaVideo": "irakurri biltegi partekatuko bideo-fitxategiak",
        "permlab_readNetworkUsageHistory": "irakurri sare-erabileraren historia",
        "permlab_readPhoneNumbers": "irakurri telefono-zenbakiak",
        "permlab_readPhoneState": "irakurri telefonoaren egoera eta identitatea",
        "permlab_readSms": "irakurri testu-mezuak (SMSak edo MMSak)",
        "permlab_readSyncSettings": "irakurri sinkronizazio-ezarpenak",
        "permlab_readSyncStats": "irakurri sinkronizazio-estatistikak",
        "permlab_readVisualUserSelect": "irakurri biltegi partekatuko irudi- eta bideo-fitxategiak",
        "permlab_receiveBootCompleted": "exekutatu abiaraztean",
        "permlab_receiveMms": "jaso testu-mezuak (MMSak)",
        "permlab_receiveSms": "jaso testu-mezuak (SMSak)",
        "permlab_receiveWapPush": "jaso testu-mezuak (WAP bidezkoak)",
        "permlab_recordAudio": "grabatu audioa",
        "permlab_recordBackgroundAudio": "Audioa grabatu atzeko planoan.",
        "permlab_register_call_provider": "erregistratu telekomunikabideekiko konexio berriak",
        "permlab_register_sim_subscription": "erregistratu telekomunikabideekiko SIM konexio berriak",
        "permlab_removeDrmCertificates": "kendu DRM ziurtagiriak",
        "permlab_reorderTasks": "ordenatu abian diren aplikazioak",
        "permlab_requestDeletePackages": "eskatu paketeak ezabatzeko",
        "permlab_requestIgnoreBatteryOptimizations": "eskatu bateria-optimizazioei ez ikusi egitea",
        "permlab_requestInstallPackages": "eskatu instalazio-paketeak",
        "permlab_requestPasswordComplexity": "eskatu pantaila-blokeoaren konplexutasuna",
        "permlab_route_media_output": "bideratu multimedia-irteera",
        "permlab_runInBackground": "exekutatu atzeko planoan",
        "permlab_schedule_exact_alarm": "antolatu ekintzak une zehatzetan gerta daitezen",
        "permlab_sdcardRead": "Irakurri biltegiratze partekatuko edukia",
        "permlab_sdcardWrite": "Aldatu edo ezabatu biltegiratze partekatuko edukia",
        "permlab_sendSms": "bidali eta ikusi SMS mezuak",
        "permlab_setAlarm": "ezarri alarmak",
        "permlab_setInputCalibration": "Aldatu idazteko gailuaren kalibrazioa",
        "permlab_setTimeZone": "ezarri ordu-zona",
        "permlab_setWallpaper": "ezarri horma-papera",
        "permlab_setWallpaperHints": "doitu horma-paperaren tamaina",
        "permlab_sim_communication": "bidali aginduak SIM txartelera",
        "permlab_startForegroundServicesFromBackground": "Hasi aurreko planoko zerbitzuak atzeko planotik",
        "permlab_startReviewPermissionDecisions": "hasi baimenen inguruko erabakiak ikusten",
        "permlab_startViewAppFeatures": "hasi aplikazioaren eginbideak ikusten",
        "permlab_startViewPermissionUsage": "hasi ikusteko baimena erabiltzen",
        "permlab_statusBar": "desgaitu edo aldatu egoera-barra",
        "permlab_statusBarService": "bihurtu egoera-barra",
        "permlab_subscribedFeedsRead": "irakurri harpidetutako jarioak",
        "permlab_systemAlertWindow": "agertu beste aplikazio batzuen gainean",
        "permlab_systemCamera": "Baimendu aplikazio edo zerbitzu bati sistemako kamerak atzitzea argazkiak eta bideoak ateratzeko",
        "permlab_transmitIr": "transmititu infragorriak",
        "permlab_turnScreenOn": "piztu pantaila",
        "permlab_uninstall_shortcut": "desinstalatu lasterbideak",
        "permlab_updatePackagesWithoutUserAction": "eguneratu aplikazioa erabiltzaileak ezer egin gabe",
        "permlab_useBiometric": "Erabili hardware biometrikoa",
        "permlab_useDataInBackground": "erabili datuak atzeko planoan",
        "permlab_useFaceAuthentication": "erabili aurpegiaren bidez desblokeatzeko hardwarea",
        "permlab_useFingerprint": "erabili erreferentzia-gako digitalen hardwarea",
        "permlab_use_exact_alarm": "antolatu alarmak edo gertaera-abisuak",
        "permlab_use_sip": "egin/jaso SIP deiak",
        "permlab_uwb_ranging": "banda ultrazabala darabilten inguruko gailuen arteko distantzia erlatiboa zehaztu",
        "permlab_vibrate": "kontrolatu dardara",
        "permlab_videoWrite": "zure bideo-bilduma aldatu",
        "permlab_wakeLock": "eragotzi telefonoa inaktibo ezartzea",
        "permlab_writeCalendar": "gehitu edo aldatu egutegiko gertaerak eta bidali mezu elektronikoak gonbidatuei jabeek jakin gabe",
        "permlab_writeCallLog": "idatzi deien erregistroan",
        "permlab_writeContacts": "aldatu kontaktuak",
        "permlab_writeGeolocationPermissions": "aldatu arakatzailearen geokokapenaren baimenak",
        "permlab_writeHistoryBookmarks": "idatzi sareko laster-marka eta historian",
        "permlab_writeSettings": "aldatu sistemaren ezarpenak",
        "permlab_writeSyncSettings": "aktibatu eta desaktibatu sinkronizazioa"
    },
    "sidebars": {
        "donate": {
            "bank_transfer_name": "Izena",
            "bitcoin_alt": "Bitcoin",
            "credit_card": "Kreditu-txartela",
            "crypto": "Kripto",
            "currency": "Dirua",
            "flattr_alt": "Flattr",
            "heading": "Dohaintza",
            "hellotux": "👕 Kamisetak 👕 salgai",
            "hellotux_alt": "HELLOTUX",
            "hellotux_donation": "F-Droidek 3€ jasoko ditu saldutako kamiseta bakoitzeko.",
            "liberapay_alt": "Liberapay",
            "litecoin_alt": "Litecoin bidezko dohaintza",
            "more_options": "Aukera gehiago",
            "opencollective_alt": "Egin dohaintza gure kolektiboari",
            "paypal": "PayPal",
            "paypal_alt": "PayPal bidezko dohaintza",
            "powered_by_donations": "F-Droid zure dohaintzei esker dabil!",
            "via_bank_transfer": "Banku transferentzia"
        },
        "lang": {
            "change": "Aldatu"
        },
        "last_updated": {
            "heading": "Eguneratutako azkenak"
        },
        "latest_packages": {
            "heading": "Aplikazio berriak"
        },
        "news": {
            "heading": "Berriak"
        },
        "search": {
            "heading": "Bilatu aplikazioak",
            "noscript": "Javascript aktibatuta izatea behar du",
            "search": "Bilatu"
        }
    }
}
